^F:\LAB2\LAB2\DEBUG\ARRAY.OBJ|F:\LAB2\LAB2\DEBUG\MAIN.OBJ
/OUT:"F:\LAB2\DEBUG\LAB2.EXE" /INCREMENTAL /NOLOGO KERNEL32.LIB USER32.LIB GDI32.LIB WINSPOOL.LIB COMDLG32.LIB ADVAPI32.LIB SHELL32.LIB OLE32.LIB OLEAUT32.LIB UUID.LIB ODBC32.LIB ODBCCP32.LIB /MANIFEST /MANIFESTUAC:"level='asInvoker' uiAccess='false'" /manifest:embed /Debug /PDB:"F:\LAB2\DEBUG\LAB2.PDB" /SUBSYSTEM:CONSOLE /TLBID:1 /DYNAMICBASE /NXCOMPAT /IMPLIB:"F:\LAB2\DEBUG\LAB2.LIB" /MACHINE:X86 DEBUG\ARRAY.OBJDEBUG\MAIN.OBJ
^E:\LAB2\LAB2\DEBUG\ARRAY.OBJ|E:\LAB2\LAB2\DEBUG\MAIN.OBJ
/OUT:"E:\LAB2\DEBUG\LAB2.EXE" /INCREMENTAL /NOLOGO KERNEL32.LIB USER32.LIB GDI32.LIB WINSPOOL.LIB COMDLG32.LIB ADVAPI32.LIB SHELL32.LIB OLE32.LIB OLEAUT32.LIB UUID.LIB ODBC32.LIB ODBCCP32.LIB /MANIFEST /MANIFESTUAC:"level='asInvoker' uiAccess='false'" /manifest:embed /DEBUG /PDB:"E:\LAB2\DEBUG\LAB2.PDB" /SUBSYSTEM:CONSOLE /TLBID:1 /DYNAMICBASE /NXCOMPAT /IMPLIB:"E:\LAB2\DEBUG\LAB2.LIB" /MACHINE:X86 DEBUG\ARRAY.OBJDEBUG\MAIN.OBJ
